<?xml version="1.0" encoding="utf-8"?>
<!-- Generator: Adobe Illustrator 26.0.3, SVG Export Plug-In . SVG Version: 6.00 Build 0)  -->
<svg version="1.1" id="Layer_1" xmlns="http://www.w3.org/2000/svg" xmlns:xlink="http://www.w3.org/1999/xlink" x="0px" y="0px"
	 viewBox="0 0 30 30" style="enable-background:new 0 0 30 30;" xml:space="preserve">
<style type="text/css">
	.st0{fill-rule:evenodd;clip-rule:evenodd;fill:#FF7800;}
</style>
<path id="Path_185" class="st0" d="M16.8,13.4c0.8-1,1.9-1.5,3.2-1.4c2,0,3.6,1.7,3.6,3.7c0,0,0,0,0,0l0,0c0.1,2,0,3.9,0,5.9
	c0,0.5-0.2,0.6-0.7,0.6s-1.2,0-1.8,0s-0.8-0.2-0.8-0.8c0-1.3,0-2.7,0-4c0-0.4,0-0.7,0-1.1c0-0.9-0.7-1.7-1.6-1.8h-0.1
	c-1,0-1.8,0.8-1.8,1.9c0,0,0,0,0,0c0,1.6,0,3.2,0,4.7c0,1,0,1-1,1.1c-2.3,0-2.3,0-2.3-2.2s0-4.6,0-6.9c0-0.7,0.2-0.9,0.9-0.9
	c0.4,0,0.8,0,1.2,0C16.6,12.2,16.6,12.2,16.8,13.4z M8.2,17.2c0-1.4,0-2.8,0-4.1c0-0.6,0.2-0.9,0.9-0.8s1.2,0,1.8,0
	c0.5,0,0.7,0.2,0.7,0.6c0,2.9,0,5.8,0,8.7c0,0.5-0.2,0.6-0.6,0.6c-0.7,0-1.3,0-2,0c-0.5,0-0.7-0.2-0.7-0.7
	C8.2,20.1,8.2,18.7,8.2,17.2L8.2,17.2z M9.8,10.8c-1,0.1-1.8-0.7-1.9-1.6c0,0,0,0,0,0V9.1c0-1,0.8-1.8,1.8-1.7c0,0,0,0,0,0l0,0
	c1-0.1,1.8,0.6,1.9,1.6c0,0.1,0,0.1,0,0.2c0,0.9-0.7,1.7-1.6,1.7C9.9,10.8,9.9,10.8,9.8,10.8z"/>
</svg>
